<?xml version="1.0" encoding="UTF-8"?>
<!DOCTYPE svg PUBLIC "-//W3C//DTD SVG 1.1//EN" "http://www.w3.org/Graphics/SVG/1.1/DTD/svg11.dtd">
<!-- Creator: CorelDRAW 2017 -->
<svg xmlns="http://www.w3.org/2000/svg" xml:space="preserve" width="8.5in" height="8.5in" version="1.1" style="shape-rendering:geometricPrecision; text-rendering:geometricPrecision; image-rendering:optimizeQuality; fill-rule:evenodd; clip-rule:evenodd"
viewBox="0 0 8500 8500"
 xmlns:xlink="http://www.w3.org/1999/xlink">
 <defs>
  <style type="text/css">
   <![CDATA[
    .fil1 {fill:#010101}
    .fil0 {fill:#22DA78}
    .fil2 {fill:white}
   ]]>
  </style>
 </defs>
 <g id="Layer_x0020_1">
  <metadata id="CorelCorpID_0Corel-Layer"/>
  <g id="_2108745080512">
   <path class="fil0" d="M3085.83 4230.95l814.06 343.48 1.99 186.11 -815.06 360.17 -0.26 -232.49 553.29 -211.48 -550.69 -221.7 -3.34 -224.09zm-379.91 1036.06c-195.13,20.76 -134.67,-83.17 -99.87,-232.02 37.88,-162.09 203.44,-939.17 257.69,-970.54 52.85,-30.56 122.12,-8.93 128.76,55.3 6.19,59.81 -254.39,1087.83 -286.58,1147.26zm-36.84 -2018.63l-3.48 228.76 -548.98 221.46 552.83 214.66 -0.56 234.64 -813.98 -347.8 0.04 -204.14 814.12 -347.58zm60.86 -768.01c-225.02,88.18 -775.72,446.9 -1046.11,589.56 -541.84,285.92 -421.51,254.11 -421.51,1236.08 0,971.64 -142.9,692.5 1066.66,1399.09 494.16,288.69 454.09,298.94 840.96,79.85l782.55 -446.58c536.69,-307.37 421.74,-198.33 421.74,-1234.37 0,-134.67 0,-269.36 0,-404.03 0,-346.78 16.32,-377.32 -266.16,-547.44l-792.41 -453.68c-162.09,-98.1 -427.19,-280.59 -585.72,-218.48z"/>
   <path class="fil1" d="M6746.07 4502.48l-4.28 -614.09c278.88,-8.09 317.52,21.59 318.09,299.78 0.6,294.75 -18.63,322.94 -313.81,314.31zm-176.19 -757.41c-20.36,125.86 -36.65,815.33 -9.03,876.18 30.78,67.82 221.78,48.28 298.37,48.28 343.07,-0.02 391.46,-200.44 391.7,-498.17 0.38,-475.35 -239.85,-449.92 -560.05,-449.92 -46.41,0 -96.31,5.33 -120.99,23.64z"/>
   <path class="fil1" d="M5276.8 4248.39l75.38 117.23c80.07,144.17 159.9,339.69 260.85,304.81 176.37,-60.92 -132.64,-397.9 -198,-582.74l130.67 -152.48c52.41,-55.28 94.96,-93.47 72.33,-191.54l-87.09 -32.29c-67.32,42.39 -141.23,132.38 -195.41,198.14l-172.76 205.06c-14.02,-137.02 18.87,-277.85 -29.7,-385.81l-109.72 -12.78c-84.88,82.89 -52.41,252.4 -52.41,371.18 0,145.61 -2.19,292.74 -0.44,438.11 1,82.81 1.45,135.4 74.3,146.58 79.2,12.13 107.31,-26.65 113.79,-96.04 21.44,-228.92 -59.37,-122.82 90.29,-297.69 2.55,-2.98 6.11,-7.36 8.49,-10.06l19.43 -19.66z"/>
   <polygon class="fil2" points="1854.96,3595.96 1854.92,3800.11 2668.9,4147.9 2669.45,3913.26 2116.62,3698.6 2665.59,3477.14 2669.07,3248.39 "/>
   <polygon class="fil2" points="3089.17,4455.04 3639.85,4676.74 3086.56,4888.22 3086.82,5120.71 3901.88,4760.54 3899.89,4574.44 3085.83,4230.95 "/>
   <path class="fil1" d="M6290.15 3722.74c-89.97,82.57 -121.82,264.27 -205.31,362.11 -78.58,-105.11 -112.02,-283.7 -203.93,-362.83 -255.62,-28.2 -23.4,305.41 27.42,406.25 58.42,115.92 84.78,125.44 83.93,278.74 -0.57,100.27 -29.11,265.62 92.7,266.59 120.47,0.96 94.74,-152.39 94.17,-249.77 -1.15,-193.9 86.51,-299.9 196.72,-517.3 52.56,-103.65 74.37,-205.22 -85.7,-183.8z"/>
   <path class="fil2" d="M2705.92 5267.01c32.19,-59.43 292.76,-1087.46 286.58,-1147.26 -6.64,-64.22 -75.91,-85.86 -128.76,-55.3 -54.24,31.37 -219.81,808.45 -257.69,970.54 -34.8,148.85 -95.26,252.78 99.87,232.02z"/>
   <path class="fil2" d="M6746.07 4502.48c295.19,8.63 314.41,-19.57 313.81,-314.31 -0.57,-278.19 -39.21,-307.87 -318.09,-299.78l4.28 614.09z"/>
  </g>
 </g>
</svg>
